{
    "page": 1,
    "per_page": 1,
    "photos": [
        {
            "id": 6590699,
            "width": 3264,
            "height": 4912,
            "url": "https://www.pexels.com/photo/tall-majestic-palm-trees-on-green-hills-6590699/",
            "photographer": "Alexis Ricardo Alaurin",
            "photographer_url": "https://www.pexels.com/@alexisricardoalaurin",
            "photographer_id": 1507405,
            "avg_color": "#A39A86",
            "src": {
                "original": "https://images.pexels.com/photos/6590699/pexels-photo-6590699.jpeg",
                "large2x": "https://images.pexels.com/photos/6590699/pexels-photo-6590699.jpeg?auto=compress&cs=tinysrgb&dpr=2&h=650&w=940",
                "large": "https://images.pexels.com/photos/6590699/pexels-photo-6590699.jpeg?auto=compress&cs=tinysrgb&h=650&w=940",
                "medium": "https://images.pexels.com/photos/6590699/pexels-photo-6590699.jpeg?auto=compress&cs=tinysrgb&h=350",
                "small": "https://images.pexels.com/photos/6590699/pexels-photo-6590699.jpeg?auto=compress&cs=tinysrgb&h=130",
                "portrait": "https://images.pexels.com/photos/6590699/pexels-photo-6590699.jpeg?auto=compress&cs=tinysrgb&fit=crop&h=1200&w=800",
                "landscape": "https://images.pexels.com/photos/6590699/pexels-photo-6590699.jpeg?auto=compress&cs=tinysrgb&fit=crop&h=627&w=1200",
                "tiny": "https://images.pexels.com/photos/6590699/pexels-photo-6590699.jpeg?auto=compress&cs=tinysrgb&dpr=1&fit=crop&h=200&w=280"
            },
            "liked": false,
            "alt": "Tall majestic palm trees on green hills"
        }
    ],
    "total_results": 8000,
    "next_page": "https://api.pexels.com/v1/search/?page=2&per_page=1&query=nature"
}